…
</div>

:::

::: {.column width="50%"}

<div style="font-size:0.5em;"> 

```{r}
#| eval: false
#| echo: true
> ny_temporal
# A tibble: 336 × 4
   user_type day    hour count
   <chr>     <ord> <int> <int>
 1 Customer  Sun       0   341
 2 Customer  Sun       1   284
 3 Customer  Sun       2   118
 4 Customer  Sun       3    59
 5 Customer  Sun       4    42
 6 Customer  Sun       5    57
 7 Customer  Sun       6   103
 8 Customer  Sun       7   173
 9 Customer  Sun       8   387
10 Customer  Sun       9   743
# ℹ 326 more rows
# ℹ Use `print(n = ...)` to see more rows
```
…
