…
</div>

:::

::: {.column width="50%"}

<div style="font-size:0.5em;"> 

```{r}
#| eval: false
#| echo: true

array_data

# A tibble: 100 × 4
     row   col Oxford Fareham
   <int> <int> <lgl>  <lgl>  
 1     1     1 TRUE   FALSE  
 2     1     2 TRUE   TRUE   
 3     1     3 FALSE  FALSE  
 4     1     4 TRUE   FALSE  
 5     1     5 TRUE   FALSE  
 6     1     6 FALSE  FALSE  
 7     1     7 FALSE  FALSE  
 8     1     8 FALSE  FALSE  
 9     1     9 FALSE  TRUE   
10     1    10 FALSE  TRUE
# ℹ 90 more rows
# ℹ Use `print(n = ...)` to see more rows
```
…
</div>

:::

::: {.column width="50%"}

<div style="font-size:0.5em;"> 

```{r}
#| eval: false
#| echo: true
> rate_boots
# A tibble: 4,004 × 4
   local_authority_district id            ksi_rate sample_size
   <chr>                    <chr>            <dbl>       <dbl>
 1 Sheffield                Bootstrap0001    0.504         248
 2 Sheffield                Bootstrap0002    0.536         248
 3 Sheffield                Bootstrap0003    0.512         248
 4 Sheffield                Bootstrap0004    0.472         248
 5 Sheffield                Bootstrap0005    0.435         248
 6 Sheffield                Bootstrap0006    0.472         248
 7 Sheffield                Bootstrap0007    0.492         248
 8 Sheffield                Bootstrap0008    0.5           248
 9 Sheffield                Bootstrap0009    0.496         248
10 Sheffield                Bootstrap0010    0.488         248
# ℹ 3,994 more rows
# ℹ Use `print(n = ...)` to see more rows
```
…
</div>

:::

::: {.column width="50%"}

<div style="font-size:0.5em;"> 

```{r}
#| eval: false
#| echo: true
> rate_boots
# A tibble: 4,004 × 3
   local_authority_district splits           id           
   <chr>                    <list>           <chr>        
 1 Sheffield                <split [248/89]> Bootstrap0001
 2 Sheffield                <split [248/93]> Bootstrap0002
 3 Sheffield                <split [248/91]> Bootstrap0003
 4 Sheffield                <split [248/92]> Bootstrap0004
 5 Sheffield                <split [248/92]> Bootstrap0005
 6 Sheffield                <split [248/92]> Bootstrap0006
 7 Sheffield                <split [248/90]> Bootstrap0007
 8 Sheffield                <split [248/92]> Bootstrap0008
 9 Sheffield                <split [248/83]> Bootstrap0009
10 Sheffield                <split [248/97]> Bootstrap0010
# ℹ 3,994 more rows
# ℹ Use `print(n = ...)` to see more rows
```
…
</div>

:::

::: {.column width="50%"}

<div style="font-size:0.5em;"> 

```{r}
#| eval: false
#| echo: true
> rate_boots
# A tibble: 4,004 × 4
   local_authority_district id            ksi_rate sample_size
   <chr>                    <chr>            <dbl>       <dbl>
 1 Sheffield                Bootstrap0001    0.528         248
 2 Sheffield                Bootstrap0002    0.448         248
 3 Sheffield                Bootstrap0003    0.484         248
 4 Sheffield                Bootstrap0004    0.524         248
 5 Sheffield                Bootstrap0005    0.464         248
 6 Sheffield                Bootstrap0006    0.484         248
 7 Sheffield                Bootstrap0007    0.512         248
 8 Sheffield                Bootstrap0008    0.552         248
 9 Sheffield                Bootstrap0009    0.472         248
10 Sheffield                Bootstrap0010    0.484         248
# ℹ 3,994 more rows
# ℹ Use `print(n = ...)` to see more rows
```
…
