…
</div>

:::

::: {.column width="50%"}

<div style="font-size:0.5em;"> 

```{r}
#| eval: false
#| echo: true
> vote_data
# A tibble: 1,897 × 6
   ons_const_id constituency_name region   party votes votes_dot
   <chr>        <chr>             <chr>    <chr> <dbl>     <dbl>
 1 W07000049    Aberavon          Wales    con    6518         7
 2 W07000049    Aberavon          Wales    lab   17008        17
 3 W07000049    Aberavon          Wales    other  8072         8
 4 W07000058    Aberconwy         Wales    con   14687        15
 5 W07000058    Aberconwy         Wales    lab   12653        13
 6 W07000058    Aberconwy         Wales    other  4525         5
 7 S14000001    Aberdeen North    Scotland con    7535         8
 8 S14000001    Aberdeen North    Scotland lab    4939         5
 9 S14000001    Aberdeen North    Scotland other 24939        25
10 S14000002    Aberdeen South    Scotland con   16398        16
# ℹ 1,887 more rows
# ℹ Use `print(n = ...)` to see more rows
```
…
</div>

:::

::: {.column width="50%"}

<div style="font-size:0.5em;"> 

```{r}
#| eval: false
#| echo: true
> vote_data
# A tibble: 650 × 6
   ons_const_id constituency_name    region con_vote_19 lab_vote_19 other_vote_19
   <chr>        <chr>                <chr>        <dbl>       <dbl>         <dbl>
 1 W07000049    Aberavon             Wales         6518       17008          8072
 2 W07000058    Aberconwy            Wales        14687       12653          4525
 3 S14000001    Aberdeen North       Scotl…        7535        4939         24939
 4 S14000002    Aberdeen South       Scotl…       16398        3834         25406
 5 S14000003    Airdrie and Shotts   Scotl…        7011       12728         20033
 6 E14000530    Aldershot            South…       27980       11282          8670
 7 E14000531    Aldridge-Brownhills  West …       27850        8014          3478
 8 E14000532    Altrincham and Sale… North…       26311       20172          8280
 9 W07000043    Alyn and Deeside     Wales        18058       18271          6679
10 E14000533    Amber Valley         East …       29096       12210          4261
# ℹ 640 more rows
# ℹ Use `print(n = ...)` to see more rows
```
…
</div>

:::

::: {.column width="50%"}

<div style="font-size:0.5em;"> 

```{r}
#| eval: false
#| echo: true
# A tibble: 1,897 × 6
   ons_const_id constituency_name region   party votes votes_dot
   <chr>        <chr>             <chr>    <chr> <dbl>     <dbl>
 1 W07000049    Aberavon          Wales    con    6518         7
 2 W07000049    Aberavon          Wales    lab   17008        17
 3 W07000049    Aberavon          Wales    other  8072         8
 4 W07000058    Aberconwy         Wales    con   14687        15
 5 W07000058    Aberconwy         Wales    lab   12653        13
 6 W07000058    Aberconwy         Wales    other  4525         5
 7 S14000001    Aberdeen North    Scotland con    7535         8
 8 S14000001    Aberdeen North    Scotland lab    4939         5
 9 S14000001    Aberdeen North    Scotland other 24939        25
10 S14000002    Aberdeen South    Scotland con   16398        16
# ℹ 1,887 more rows
# ℹ Use `print(n = ...)` to see more rows
```
…
</div>

:::

::: {.column width="50%"}

<div style="font-size:0.5em;"> 

```{r}
#| eval: false
#| echo: true
> temp_points
# A tibble: 31,170 × 3
      east   north pcon21cd 
     <dbl>   <dbl> <chr>    
 1 482226. 156025. E14000530
 2 486109. 157244. E14000530
 3 483836. 151820. E14000530
 4 484907. 151682. E14000530
 5 488237. 150597. E14000530
 6 482613. 157190. E14000530
 7 484251. 155652. E14000530
 8 485062. 158037. E14000530
 9 486879. 155545. E14000530
10 483181. 157045. E14000530
# ℹ 31,160 more rows
# ℹ Use `print(n = ...)` to see more rows
```
…
</div>

:::

::: {.column width="50%"}

<div style="font-size:0.5em;"> 

```{r}
#| eval: false
#| echo: true
# A tibble: 31,170 × 3
      east   north pcon21cd 
     <dbl>   <dbl> <chr>    
 1 482226. 156025. E14000530
 2 486109. 157244. E14000530
 3 483836. 151820. E14000530
 4 484907. 151682. E14000530
 5 488237. 150597. E14000530
 6 482613. 157190. E14000530
 7 484251. 155652. E14000530
 8 485062. 158037. E14000530
 9 486879. 155545. E14000530
10 483181. 157045. E14000530
# ℹ 31,160 more rows
# ℹ Use `print(n = ...)` to see more rows
```
…
